<svg width="56" height="72" viewBox="0 0 56 72" fill="none" xmlns="http://www.w3.org/2000/svg">
<path d="M26 62H30V50H42V46H30V34H26V46H14V50H26V62ZM6.4615 72C4.68457 72 3.16343 71.3673 1.8981 70.1019C0.6327 68.8366 0 67.3154 0 65.5385V30.4615C0 28.6846 0.6327 27.1634 1.8981 25.8981C3.16343 24.6327 4.68457 24 6.4615 24H12V16C12 11.5436 13.5526 7.76284 16.6577 4.6577C19.7628 1.55257 23.5436 0 28 0C32.4564 0 36.2372 1.55257 39.3423 4.6577C42.4474 7.76284 44 11.5436 44 16V24H49.5385C51.3154 24 52.8366 24.6327 54.1019 25.8981C55.3673 27.1634 56 28.6846 56 30.4615V65.5385C56 67.3154 55.3673 68.8366 54.1019 70.1019C52.8366 71.3673 51.3154 72 49.5385 72H6.4615ZM6.4615 68H49.5385C50.2564 68 50.8462 67.7692 51.3077 67.3077C51.7692 66.8462 52 66.2564 52 65.5385V30.4615C52 29.7436 51.7692 29.1538 51.3077 28.6923C50.8462 28.2308 50.2564 28 49.5385 28H6.4615C5.74357 28 5.15383 28.2308 4.6923 28.6923C4.23077 29.1538 4 29.7436 4 30.4615V65.5385C4 66.2564 4.23077 66.8462 4.6923 67.3077C5.15383 67.7692 5.74357 68 6.4615 68ZM16 24H40V16C40 12.6667 38.8333 9.83333 36.5 7.5C34.1667 5.16667 31.3333 4 28 4C24.6667 4 21.8333 5.16667 19.5 7.5C17.1667 9.83333 16 12.6667 16 16V24Z" fill="#C4C9E9"/>
</svg>
